<?xml version="1.0" encoding="utf-8"?>
<!-- Generator: Adobe Illustrator 21.0.0, SVG Export Plug-In . SVG Version: 6.00 Build 0)  -->
<svg version="1.1" id="Layer_1" xmlns="http://www.w3.org/2000/svg" xmlns:xlink="http://www.w3.org/1999/xlink" x="0px" y="0px"
	 viewBox="0 0 1163 440" style="enable-background:new 0 0 1163 440;" xml:space="preserve">
<style type="text/css">
	.st0{fill:#EDA455;}
	.st1{fill:#FFFFFF;}
	.st2{fill-rule:evenodd;clip-rule:evenodd;fill:#FFFFFF;}
	.st3{fill:#E6E7E8;}
</style>
<g>
	<polygon class="st0" points="1155.7,385.4 1155.7,51.2 1156.7,51.2 1156.7,385.4 1155.7,385.4 	"/>
	<polygon class="st0" points="1067.2,385.4 1067.2,82 1068.3,82 1068.3,385.4 1067.2,385.4 	"/>
	<polygon class="st0" points="978.8,385.4 978.8,106.8 979.9,106.8 979.9,385.4 978.8,385.4 	"/>
	<polygon class="st0" points="890.4,385.4 890.4,129 891.5,129 891.5,385.4 890.4,385.4 	"/>
	<polygon class="st0" points="802,385.4 802,143.3 803.1,143.3 803.1,385.4 802,385.4 	"/>
	<polygon class="st0" points="713.6,385.4 713.6,143.3 714.7,143.3 714.7,385.4 713.6,385.4 	"/>
	<polygon class="st0" points="625.2,385.4 625.2,170.6 626.2,170.6 626.2,385.4 625.2,385.4 	"/>
	<polygon class="st0" points="536.8,385.4 536.8,203.5 537.8,203.5 537.8,385.4 536.8,385.4 	"/>
	<polygon class="st0" points="448.3,385.4 448.3,214.9 449.4,214.9 449.4,385.4 448.3,385.4 	"/>
	<polygon class="st0" points="359.9,385.4 359.9,237.7 361,237.7 361,385.4 359.9,385.4 	"/>
	<polygon class="st0" points="271.5,385.4 271.5,246.7 272.6,246.7 272.6,385.4 271.5,385.4 	"/>
	<polygon class="st0" points="183.1,385.4 183.1,269 184.2,269 184.2,385.4 183.1,385.4 	"/>
	<polygon class="st0" points="94.7,385.4 94.7,316.3 95.8,316.3 95.8,385.4 94.7,385.4 	"/>
	<polygon class="st0" points="6.3,385.4 6.3,331.3 7.3,331.3 7.3,385.4 6.3,385.4 	"/>
	<polygon class="st1" points="6.4,331.5 94.5,314.9 182.7,269.3 182.9,269.2 183.1,269.2 271.5,245.5 271.7,245.5 271.9,245.5
		360.1,237.9 448.3,215.1 448.5,215.1 448.6,215 536.8,203.7 625,171 625.1,171 713.5,142.8 713.8,142.7 714.1,142.7 802.3,141.2
		890.5,126.9 978.8,108.5 1067.1,78.8 1155.5,49.1 1156.9,53.2 1068.5,82.9 980,112.6 979.9,112.7 979.8,112.7 891.4,131.1
		891.3,131.1 802.9,145.4 802.7,145.5 802.6,145.5 714.5,147 626.4,175 626.4,175 538,207.8 537.8,207.8 537.6,207.9 449.3,219.3
		361,242.1 360.8,242.2 360.6,242.2 272.4,249.8 184.4,273.3 96.2,318.8 95.9,319 95.6,319 7.2,335.7 6.4,331.5 	"/>
	<path class="st2" d="M6.8,327.2c3.5,0,6.4,2.9,6.4,6.4s-2.9,6.4-6.4,6.4c-3.5,0-6.4-2.9-6.4-6.4S3.3,327.2,6.8,327.2L6.8,327.2z"/>
	<path class="st1" d="M6.8,382.1c1.9,0,3.5,0.8,4.8,2l0,0c1.2,1.2,2,2.9,2,4.8c0,1.9-0.8,3.5-2,4.8l0,0c-1.2,1.2-2.9,2-4.8,2
		c-1.9,0-3.5-0.8-4.8-2l0,0c-1.2-1.2-2-2.9-2-4.8c0-1.9,0.8-3.5,2-4.8l0,0C3.3,382.9,4.9,382.1,6.8,382.1L6.8,382.1z M9.3,386.4
		c-0.6-0.6-1.5-1-2.5-1c-1,0-1.9,0.4-2.5,1c-0.6,0.6-1,1.5-1,2.5c0,1,0.4,1.9,1,2.5c0.6,0.6,1.5,1,2.5,1c1,0,1.9-0.4,2.5-1
		c0.6-0.6,1-1.5,1-2.5C10.3,387.9,9.9,387,9.3,386.4L9.3,386.4z"/>
	<path class="st1" d="M95.2,382.1c1.9,0,3.5,0.8,4.8,2l0,0c1.2,1.2,2,2.9,2,4.8c0,1.9-0.8,3.5-2,4.8l0,0c-1.2,1.2-2.9,2-4.8,2
		c-1.9,0-3.5-0.8-4.8-2l0,0c-1.2-1.2-2-2.9-2-4.8c0-1.9,0.8-3.5,2-4.8l0,0C91.7,382.9,93.4,382.1,95.2,382.1L95.2,382.1z
		 M97.7,386.4c-0.6-0.6-1.5-1-2.5-1c-1,0-1.9,0.4-2.5,1c-0.6,0.6-1,1.5-1,2.5c0,1,0.4,1.9,1,2.5c0.6,0.6,1.5,1,2.5,1
		c1,0,1.9-0.4,2.5-1c0.6-0.6,1-1.5,1-2.5C98.7,387.9,98.4,387,97.7,386.4L97.7,386.4z"/>
	<path class="st1" d="M183.6,382.1c1.9,0,3.5,0.8,4.8,2l0,0c1.2,1.2,2,2.9,2,4.8c0,1.9-0.8,3.5-2,4.8l0,0c-1.2,1.2-2.9,2-4.8,2
		c-1.9,0-3.5-0.8-4.8-2l0,0c-1.2-1.2-2-2.9-2-4.8c0-1.9,0.8-3.5,2-4.8l0,0C180.1,382.9,181.8,382.1,183.6,382.1L183.6,382.1z
		 M186.1,386.4c-0.6-0.6-1.5-1-2.5-1c-1,0-1.9,0.4-2.5,1c-0.6,0.6-1,1.5-1,2.5c0,1,0.4,1.9,1,2.5c0.6,0.6,1.5,1,2.5,1
		c1,0,1.9-0.4,2.5-1c0.6-0.6,1-1.5,1-2.5C187.2,387.9,186.8,387,186.1,386.4L186.1,386.4z"/>
	<path class="st1" d="M272.1,382.1c1.9,0,3.5,0.8,4.8,2l0,0c1.2,1.2,2,2.9,2,4.8c0,1.9-0.8,3.5-2,4.8l0,0c-1.2,1.2-2.9,2-4.8,2
		c-1.9,0-3.5-0.8-4.8-2l0,0c-1.2-1.2-2-2.9-2-4.8c0-1.9,0.8-3.5,2-4.8l0,0C268.5,382.9,270.2,382.1,272.1,382.1L272.1,382.1z
		 M274.5,386.4c-0.6-0.6-1.5-1-2.5-1c-1,0-1.9,0.4-2.5,1c-0.6,0.6-1,1.5-1,2.5c0,1,0.4,1.9,1,2.5c0.6,0.6,1.5,1,2.5,1
		c1,0,1.9-0.4,2.5-1c0.6-0.6,1-1.5,1-2.5C275.6,387.9,275.2,387,274.5,386.4L274.5,386.4z"/>
	<path class="st1" d="M360.5,382.1c1.9,0,3.5,0.8,4.8,2l0,0c1.2,1.2,2,2.9,2,4.8c0,1.9-0.8,3.5-2,4.8l0,0c-1.2,1.2-2.9,2-4.8,2
		c-1.9,0-3.5-0.8-4.8-2l0,0c-1.2-1.2-2-2.9-2-4.8c0-1.9,0.8-3.5,2-4.8l0,0C356.9,382.9,358.6,382.1,360.5,382.1L360.5,382.1z
		 M363,386.4c-0.6-0.6-1.5-1-2.5-1c-1,0-1.9,0.4-2.5,1c-0.6,0.6-1,1.5-1,2.5c0,1,0.4,1.9,1,2.5c0.6,0.6,1.5,1,2.5,1
		c1,0,1.9-0.4,2.5-1c0.6-0.6,1-1.5,1-2.5C364,387.9,363.6,387,363,386.4L363,386.4z"/>
	<path class="st1" d="M448.9,382.1c1.9,0,3.5,0.8,4.8,2l0,0c1.2,1.2,2,2.9,2,4.8c0,1.9-0.8,3.5-2,4.8l0,0c-1.2,1.2-2.9,2-4.8,2
		c-1.9,0-3.5-0.8-4.8-2l0,0c-1.2-1.2-2-2.9-2-4.8c0-1.9,0.8-3.5,2-4.8l0,0C445.3,382.9,447,382.1,448.9,382.1L448.9,382.1z
		 M451.4,386.4c-0.6-0.6-1.5-1-2.5-1c-1,0-1.9,0.4-2.5,1c-0.6,0.6-1,1.5-1,2.5c0,1,0.4,1.9,1,2.5c0.6,0.6,1.5,1,2.5,1
		c1,0,1.9-0.4,2.5-1c0.6-0.6,1-1.5,1-2.5C452.4,387.9,452,387,451.4,386.4L451.4,386.4z"/>
	<path class="st1" d="M537.3,382.1c1.9,0,3.5,0.8,4.8,2l0,0c1.2,1.2,2,2.9,2,4.8c0,1.9-0.8,3.5-2,4.8l0,0c-1.2,1.2-2.9,2-4.8,2
		c-1.9,0-3.5-0.8-4.8-2l0,0c-1.2-1.2-2-2.9-2-4.8c0-1.9,0.8-3.5,2-4.8l0,0C533.7,382.9,535.4,382.1,537.3,382.1L537.3,382.1z
		 M539.8,386.4c-0.6-0.6-1.5-1-2.5-1c-1,0-1.9,0.4-2.5,1c-0.6,0.6-1,1.5-1,2.5c0,1,0.4,1.9,1,2.5c0.6,0.6,1.5,1,2.5,1
		c1,0,1.9-0.4,2.5-1c0.6-0.6,1-1.5,1-2.5C540.8,387.9,540.4,387,539.8,386.4L539.8,386.4z"/>
	<path class="st1" d="M625.7,382.1c1.9,0,3.5,0.8,4.8,2l0,0c1.2,1.2,2,2.9,2,4.8c0,1.9-0.8,3.5-2,4.8l0,0c-1.2,1.2-2.9,2-4.8,2
		c-1.9,0-3.5-0.8-4.8-2l0,0c-1.2-1.2-2-2.9-2-4.8c0-1.9,0.8-3.5,2-4.8l0,0C622.2,382.9,623.8,382.1,625.7,382.1L625.7,382.1z
		 M628.2,386.4c-0.6-0.6-1.5-1-2.5-1c-1,0-1.9,0.4-2.5,1c-0.6,0.6-1,1.5-1,2.5c0,1,0.4,1.9,1,2.5c0.6,0.6,1.5,1,2.5,1
		c1,0,1.9-0.4,2.5-1c0.6-0.6,1-1.5,1-2.5C629.2,387.9,628.8,387,628.2,386.4L628.2,386.4z"/>
	<path class="st1" d="M714.1,382.1c1.9,0,3.5,0.8,4.8,2l0,0c1.2,1.2,2,2.9,2,4.8c0,1.9-0.8,3.5-2,4.8l0,0c-1.2,1.2-2.9,2-4.8,2
		c-1.9,0-3.5-0.8-4.8-2l0,0c-1.2-1.2-2-2.9-2-4.8c0-1.9,0.8-3.5,2-4.8l0,0C710.6,382.9,712.3,382.1,714.1,382.1L714.1,382.1z
		 M716.6,386.4c-0.6-0.6-1.5-1-2.5-1c-1,0-1.9,0.4-2.5,1c-0.6,0.6-1,1.5-1,2.5c0,1,0.4,1.9,1,2.5c0.6,0.6,1.5,1,2.5,1
		c1,0,1.9-0.4,2.5-1c0.6-0.6,1-1.5,1-2.5C717.6,387.9,717.2,387,716.6,386.4L716.6,386.4z"/>
	<path class="st1" d="M802.5,382.1c1.9,0,3.5,0.8,4.8,2l0,0c1.2,1.2,2,2.9,2,4.8c0,1.9-0.8,3.5-2,4.8l0,0c-1.2,1.2-2.9,2-4.8,2
		c-1.9,0-3.5-0.8-4.8-2l0,0c-1.2-1.2-2-2.9-2-4.8c0-1.9,0.8-3.5,2-4.8l0,0C799,382.9,800.7,382.1,802.5,382.1L802.5,382.1z
		 M805,386.4c-0.6-0.6-1.5-1-2.5-1c-1,0-1.9,0.4-2.5,1c-0.6,0.6-1,1.5-1,2.5c0,1,0.4,1.9,1,2.5c0.6,0.6,1.5,1,2.5,1
		c1,0,1.9-0.4,2.5-1c0.6-0.6,1-1.5,1-2.5C806.1,387.9,805.7,387,805,386.4L805,386.4z"/>
	<path class="st1" d="M890.9,382.1c1.9,0,3.5,0.8,4.8,2l0,0c1.2,1.2,2,2.9,2,4.8c0,1.9-0.8,3.5-2,4.8l0,0c-1.2,1.2-2.9,2-4.8,2
		c-1.9,0-3.5-0.8-4.8-2l0,0c-1.2-1.2-2-2.9-2-4.8c0-1.9,0.8-3.5,2-4.8l0,0C887.4,382.9,889.1,382.1,890.9,382.1L890.9,382.1z
		 M893.4,386.4c-0.6-0.6-1.5-1-2.5-1c-1,0-1.9,0.4-2.5,1c-0.6,0.6-1,1.5-1,2.5c0,1,0.4,1.9,1,2.5c0.6,0.6,1.5,1,2.5,1
		c1,0,1.9-0.4,2.5-1c0.6-0.6,1-1.5,1-2.5C894.5,387.9,894.1,387,893.4,386.4L893.4,386.4z"/>
	<path class="st1" d="M979.4,382.1c1.9,0,3.5,0.8,4.8,2l0,0c1.2,1.2,2,2.9,2,4.8c0,1.9-0.8,3.5-2,4.8l0,0c-1.2,1.2-2.9,2-4.8,2
		c-1.9,0-3.5-0.8-4.8-2l0,0c-1.2-1.2-2-2.9-2-4.8c0-1.9,0.8-3.5,2-4.8l0,0C975.8,382.9,977.5,382.1,979.4,382.1L979.4,382.1z
		 M981.9,386.4c-0.6-0.6-1.5-1-2.5-1c-1,0-1.9,0.4-2.5,1c-0.6,0.6-1,1.5-1,2.5c0,1,0.4,1.9,1,2.5c0.6,0.6,1.5,1,2.5,1
		c1,0,1.9-0.4,2.5-1c0.6-0.6,1-1.5,1-2.5C982.9,387.9,982.5,387,981.9,386.4L981.9,386.4z"/>
	<path class="st1" d="M1067.8,382.1c1.9,0,3.5,0.8,4.8,2l0,0c1.2,1.2,2,2.9,2,4.8c0,1.9-0.8,3.5-2,4.8l0,0c-1.2,1.2-2.9,2-4.8,2
		c-1.9,0-3.5-0.8-4.8-2l0,0c-1.2-1.2-2-2.9-2-4.8c0-1.9,0.8-3.5,2-4.8l0,0C1064.2,382.9,1065.9,382.1,1067.8,382.1L1067.8,382.1z
		 M1070.3,386.4c-0.6-0.6-1.5-1-2.5-1c-1,0-1.9,0.4-2.5,1c-0.6,0.6-1,1.5-1,2.5c0,1,0.4,1.9,1,2.5c0.6,0.6,1.5,1,2.5,1
		c1,0,1.9-0.4,2.5-1c0.6-0.6,1-1.5,1-2.5C1071.3,387.9,1070.9,387,1070.3,386.4L1070.3,386.4z"/>
	<path class="st1" d="M1156.2,382.1c1.9,0,3.5,0.8,4.8,2l0,0c1.2,1.2,2,2.9,2,4.8c0,1.9-0.8,3.5-2,4.8l0,0c-1.2,1.2-2.9,2-4.8,2
		c-1.9,0-3.5-0.8-4.8-2l0,0c-1.2-1.2-2-2.9-2-4.8c0-1.9,0.8-3.5,2-4.8l0,0C1152.6,382.9,1154.3,382.1,1156.2,382.1L1156.2,382.1z
		 M1158.7,386.4c-0.6-0.6-1.5-1-2.5-1c-1,0-1.9,0.4-2.5,1c-0.6,0.6-1,1.5-1,2.5c0,1,0.4,1.9,1,2.5c0.6,0.6,1.5,1,2.5,1
		c1,0,1.9-0.4,2.5-1c0.6-0.6,1-1.5,1-2.5C1159.7,387.9,1159.3,387,1158.7,386.4L1158.7,386.4z"/>
	<path class="st3" d="M6.8,326.8c1.9,0,3.6,0.8,4.8,2c1.2,1.2,2,2.9,2,4.8s-0.8,3.6-2,4.8l0,0c-1.2,1.2-2.9,2-4.8,2
		c-1.9,0-3.6-0.8-4.8-2l0,0l0,0c-1.2-1.2-2-2.9-2-4.8c0-1.9,0.8-3.6,2-4.8l0,0C3.2,327.6,4.9,326.8,6.8,326.8L6.8,326.8z M11,329.4
		c-1.1-1.1-2.6-1.7-4.2-1.7s-3.1,0.7-4.2,1.7h0c-1.1,1.1-1.7,2.6-1.7,4.2s0.7,3.1,1.7,4.2l0,0c1.1,1.1,2.6,1.7,4.2,1.7
		s3.1-0.7,4.2-1.7v0c1.1-1.1,1.7-2.6,1.7-4.2S12.1,330.5,11,329.4L11,329.4z"/>
	<path class="st2" d="M95.2,310.5c3.5,0,6.4,2.9,6.4,6.4c0,3.5-2.9,6.4-6.4,6.4c-3.5,0-6.4-2.9-6.4-6.4
		C88.8,313.4,91.7,310.5,95.2,310.5L95.2,310.5z"/>
	<path class="st3" d="M95.2,310.1c1.9,0,3.6,0.8,4.8,2c1.2,1.2,2,2.9,2,4.8c0,1.9-0.8,3.6-2,4.8l0,0c-1.2,1.2-2.9,2-4.8,2
		c-1.9,0-3.6-0.8-4.8-2l0,0l0,0c-1.2-1.2-2-2.9-2-4.8c0-1.9,0.8-3.6,2-4.8l0,0C91.6,310.9,93.3,310.1,95.2,310.1L95.2,310.1z
		 M99.4,312.7c-1.1-1.1-2.6-1.7-4.2-1.7c-1.6,0-3.1,0.7-4.2,1.7h0c-1.1,1.1-1.7,2.6-1.7,4.2c0,1.6,0.7,3.1,1.7,4.2l0,0
		c1.1,1.1,2.6,1.7,4.2,1.7c1.6,0,3.1-0.7,4.2-1.7v0c1.1-1.1,1.7-2.6,1.7-4.2C101.2,315.3,100.5,313.8,99.4,312.7L99.4,312.7z"/>
	<path class="st2" d="M183.6,264.9c3.5,0,6.4,2.9,6.4,6.4c0,3.5-2.9,6.4-6.4,6.4s-6.4-2.9-6.4-6.4
		C177.3,267.7,180.1,264.9,183.6,264.9L183.6,264.9z"/>
	<path class="st3" d="M183.6,264.4c1.9,0,3.6,0.8,4.8,2c1.2,1.2,2,2.9,2,4.8c0,1.9-0.8,3.6-2,4.8l0,0c-1.2,1.2-2.9,2-4.8,2
		c-1.9,0-3.6-0.8-4.8-2l0,0l0,0c-1.2-1.2-2-2.9-2-4.8c0-1.9,0.8-3.6,2-4.8l0,0C180.1,265.2,181.8,264.4,183.6,264.4L183.6,264.4z
		 M187.8,267c-1.1-1.1-2.6-1.7-4.2-1.7c-1.6,0-3.1,0.7-4.2,1.7h0c-1.1,1.1-1.7,2.6-1.7,4.2c0,1.6,0.7,3.1,1.7,4.2l0,0
		c1.1,1.1,2.6,1.7,4.2,1.7s3.1-0.7,4.2-1.7v0c1.1-1.1,1.7-2.6,1.7-4.2S188.9,268.1,187.8,267L187.8,267z"/>
	<path class="st2" d="M272.1,241.3c3.5,0,6.4,2.9,6.4,6.4c0,3.5-2.9,6.4-6.4,6.4c-3.5,0-6.4-2.9-6.4-6.4
		C265.7,244.1,268.5,241.3,272.1,241.3L272.1,241.3z"/>
	<path class="st3" d="M272.1,240.8c1.9,0,3.6,0.8,4.8,2c1.2,1.2,2,2.9,2,4.8c0,1.9-0.8,3.6-2,4.8l0,0c-1.2,1.2-2.9,2-4.8,2
		c-1.9,0-3.6-0.8-4.8-2l0,0l0,0c-1.2-1.2-2-2.9-2-4.8c0-1.9,0.8-3.6,2-4.8l0,0C268.5,241.6,270.2,240.8,272.1,240.8L272.1,240.8z
		 M276.3,243.4c-1.1-1.1-2.6-1.7-4.2-1.7c-1.6,0-3.1,0.7-4.2,1.7h0c-1.1,1.1-1.7,2.6-1.7,4.2c0,1.6,0.7,3.1,1.7,4.2l0,0
		c1.1,1.1,2.6,1.7,4.2,1.7s3.1-0.7,4.2-1.7v0c1.1-1.1,1.7-2.6,1.7-4.2C278,246,277.3,244.5,276.3,243.4L276.3,243.4z"/>
	<path class="st2" d="M360.5,233.6c3.5,0,6.4,2.9,6.4,6.4c0,3.5-2.9,6.4-6.4,6.4c-3.5,0-6.4-2.9-6.4-6.4
		C354.1,236.5,356.9,233.6,360.5,233.6L360.5,233.6z"/>
	<path class="st3" d="M360.5,233.2c1.9,0,3.6,0.8,4.8,2c1.2,1.2,2,2.9,2,4.8s-0.8,3.6-2,4.8l0,0c-1.2,1.2-2.9,2-4.8,2
		c-1.9,0-3.6-0.8-4.8-2l0,0l0,0c-1.2-1.2-2-2.9-2-4.8c0-1.9,0.8-3.6,2-4.8l0,0C356.9,234,358.6,233.2,360.5,233.2L360.5,233.2z
		 M364.7,235.8c-1.1-1.1-2.6-1.7-4.2-1.7s-3.1,0.7-4.2,1.7h0c-1.1,1.1-1.7,2.6-1.7,4.2c0,1.6,0.7,3.1,1.7,4.2l0,0
		c1.1,1.1,2.6,1.7,4.2,1.7c1.6,0,3.1-0.7,4.2-1.7v0c1.1-1.1,1.7-2.6,1.7-4.2C366.4,238.4,365.7,236.9,364.7,235.8L364.7,235.8z"/>
	<path class="st2" d="M448.9,210.8c3.5,0,6.4,2.9,6.4,6.4c0,3.5-2.9,6.4-6.4,6.4c-3.5,0-6.4-2.9-6.4-6.4
		C442.5,213.6,445.4,210.8,448.9,210.8L448.9,210.8z"/>
	<path class="st3" d="M448.9,210.4c1.9,0,3.6,0.8,4.8,2s2,2.9,2,4.8c0,1.9-0.8,3.6-2,4.8l0,0c-1.2,1.2-2.9,2-4.8,2
		c-1.9,0-3.6-0.8-4.8-2l0,0l0,0c-1.2-1.2-2-2.9-2-4.8c0-1.9,0.8-3.6,2-4.8l0,0C445.3,211.1,447,210.4,448.9,210.4L448.9,210.4z
		 M453.1,213c-1.1-1.1-2.6-1.7-4.2-1.7c-1.6,0-3.1,0.7-4.2,1.7h0c-1.1,1.1-1.7,2.6-1.7,4.2c0,1.6,0.7,3.1,1.7,4.2l0,0
		c1.1,1.1,2.6,1.7,4.2,1.7c1.6,0,3.1-0.7,4.2-1.7v0c1.1-1.1,1.7-2.6,1.7-4.2C454.8,215.5,454.2,214,453.1,213L453.1,213z"/>
	<path class="st2" d="M537.3,199.4c3.5,0,6.4,2.9,6.4,6.4c0,3.5-2.9,6.4-6.4,6.4c-3.5,0-6.4-2.9-6.4-6.4
		C530.9,202.2,533.8,199.4,537.3,199.4L537.3,199.4z"/>
	<path class="st3" d="M537.3,198.9c1.9,0,3.6,0.8,4.8,2c1.2,1.2,2,2.9,2,4.8c0,1.9-0.8,3.6-2,4.8l0,0c-1.2,1.2-2.9,2-4.8,2
		c-1.9,0-3.6-0.8-4.8-2l0,0l0,0c-1.2-1.2-2-2.9-2-4.8c0-1.9,0.8-3.6,2-4.8l0,0C533.7,199.7,535.4,198.9,537.3,198.9L537.3,198.9z
		 M541.5,201.5c-1.1-1.1-2.6-1.7-4.2-1.7c-1.6,0-3.1,0.7-4.2,1.7h0c-1.1,1.1-1.7,2.6-1.7,4.2s0.7,3.1,1.7,4.2l0,0
		c1.1,1.1,2.6,1.7,4.2,1.7c1.6,0,3.1-0.7,4.2-1.7v0c1.1-1.1,1.7-2.6,1.7-4.2C543.2,204.1,542.6,202.6,541.5,201.5L541.5,201.5z"/>
	<path class="st2" d="M625.7,166.6c3.5,0,6.4,2.9,6.4,6.4s-2.9,6.4-6.4,6.4c-3.5,0-6.4-2.9-6.4-6.4S622.2,166.6,625.7,166.6
		L625.7,166.6z"/>
	<path class="st3" d="M625.7,166.2c1.9,0,3.6,0.8,4.8,2l0,0c1.2,1.2,2,2.9,2,4.8c0,1.9-0.8,3.6-2,4.8l0,0l0,0c-1.2,1.2-2.9,2-4.8,2
		c-1.9,0-3.6-0.8-4.8-2l0,0c-1.2-1.2-2-2.9-2-4.8c0-1.9,0.8-3.6,2-4.8C622.1,167,623.8,166.2,625.7,166.2L625.7,166.2z M629.9,168.8
		c-1.1-1.1-2.6-1.7-4.2-1.7c-1.6,0-3.1,0.7-4.2,1.7c-1.1,1.1-1.7,2.6-1.7,4.2c0,1.6,0.7,3.1,1.7,4.2v0c1.1,1.1,2.6,1.7,4.2,1.7
		c1.6,0,3.1-0.7,4.2-1.7l0,0c1.1-1.1,1.7-2.6,1.7-4.2C631.7,171.4,631,169.9,629.9,168.8L629.9,168.8L629.9,168.8z"/>
	<path class="st2" d="M714.1,138.5c3.5,0,6.4,2.9,6.4,6.4c0,3.5-2.9,6.4-6.4,6.4c-3.5,0-6.4-2.9-6.4-6.4
		C707.7,141.3,710.6,138.5,714.1,138.5L714.1,138.5z"/>
	<path class="st3" d="M714.1,138c1.9,0,3.6,0.8,4.8,2l0,0l0,0c1.2,1.2,2,2.9,2,4.8c0,1.9-0.8,3.6-2,4.8l0,0c-1.2,1.2-2.9,2-4.8,2
		c-1.9,0-3.6-0.8-4.8-2c-1.2-1.2-2-2.9-2-4.8c0-1.9,0.8-3.6,2-4.8l0,0C710.5,138.8,712.2,138,714.1,138L714.1,138z M718.3,140.6
		c-1.1-1.1-2.6-1.7-4.2-1.7s-3.1,0.7-4.2,1.7v0c-1.1,1.1-1.7,2.6-1.7,4.2c0,1.6,0.7,3.1,1.7,4.2c1.1,1.1,2.6,1.7,4.2,1.7
		s3.1-0.7,4.2-1.7h0c1.1-1.1,1.7-2.6,1.7-4.2C720.1,143.2,719.4,141.7,718.3,140.6L718.3,140.6L718.3,140.6z"/>
	<path class="st2" d="M802.5,136.9c3.5,0,6.4,2.9,6.4,6.4s-2.9,6.4-6.4,6.4c-3.5,0-6.4-2.9-6.4-6.4S799,136.9,802.5,136.9
		L802.5,136.9z"/>
	<path class="st3" d="M802.5,136.5c1.9,0,3.6,0.8,4.8,2l0,0l0,0c1.2,1.2,2,2.9,2,4.8c0,1.9-0.8,3.6-2,4.8l0,0c-1.2,1.2-2.9,2-4.8,2
		s-3.6-0.8-4.8-2c-1.2-1.2-2-2.9-2-4.8c0-1.9,0.8-3.6,2-4.8l0,0C799,137.3,800.7,136.5,802.5,136.5L802.5,136.5z M806.7,139.1
		c-1.1-1.1-2.6-1.7-4.2-1.7c-1.6,0-3.1,0.7-4.2,1.7v0c-1.1,1.1-1.7,2.6-1.7,4.2c0,1.6,0.7,3.1,1.7,4.2c1.1,1.1,2.6,1.7,4.2,1.7
		s3.1-0.7,4.2-1.7h0c1.1-1.1,1.7-2.6,1.7-4.2C808.5,141.7,807.8,140.2,806.7,139.1L806.7,139.1L806.7,139.1z"/>
	<path class="st2" d="M890.9,122.6c3.5,0,6.4,2.9,6.4,6.4c0,3.5-2.9,6.4-6.4,6.4c-3.5,0-6.4-2.9-6.4-6.4
		C884.6,125.5,887.4,122.6,890.9,122.6L890.9,122.6z"/>
	<path class="st3" d="M890.9,122.2c1.9,0,3.6,0.8,4.8,2l0,0l0,0c1.2,1.2,2,2.9,2,4.8c0,1.9-0.8,3.6-2,4.8l0,0c-1.2,1.2-2.9,2-4.8,2
		s-3.6-0.8-4.8-2c-1.2-1.2-2-2.9-2-4.8c0-1.9,0.8-3.6,2-4.8l0,0C887.4,123,889.1,122.2,890.9,122.2L890.9,122.2z M895.2,124.8
		c-1.1-1.1-2.6-1.7-4.2-1.7c-1.6,0-3.1,0.7-4.2,1.7v0c-1.1,1.1-1.7,2.6-1.7,4.2c0,1.6,0.7,3.1,1.7,4.2c1.1,1.1,2.6,1.7,4.2,1.7
		c1.6,0,3.1-0.7,4.2-1.7h0c1.1-1.1,1.7-2.6,1.7-4.2C896.9,127.4,896.2,125.9,895.2,124.8L895.2,124.8L895.2,124.8z"/>
	<path class="st2" d="M979.4,104.2c3.5,0,6.4,2.9,6.4,6.4c0,3.5-2.9,6.4-6.4,6.4s-6.4-2.9-6.4-6.4C973,107,975.8,104.2,979.4,104.2
		L979.4,104.2z"/>
	<path class="st3" d="M979.4,103.8c1.9,0,3.6,0.8,4.8,2l0,0l0,0c1.2,1.2,2,2.9,2,4.8c0,1.9-0.8,3.6-2,4.8l0,0c-1.2,1.2-2.9,2-4.8,2
		c-1.9,0-3.6-0.8-4.8-2c-1.2-1.2-2-2.9-2-4.8c0-1.9,0.8-3.6,2-4.8l0,0C975.8,104.5,977.5,103.8,979.4,103.8L979.4,103.8z
		 M983.6,106.4c-1.1-1.1-2.6-1.7-4.2-1.7c-1.6,0-3.1,0.7-4.2,1.7v0c-1.1,1.1-1.7,2.6-1.7,4.2c0,1.6,0.7,3.1,1.7,4.2
		c1.1,1.1,2.6,1.7,4.2,1.7c1.6,0,3.1-0.7,4.2-1.7h0c1.1-1.1,1.7-2.6,1.7-4.2C985.3,108.9,984.6,107.4,983.6,106.4L983.6,106.4
		L983.6,106.4z"/>
	<path class="st2" d="M1067.8,74.5c3.5,0,6.4,2.9,6.4,6.4c0,3.5-2.9,6.4-6.4,6.4c-3.5,0-6.4-2.9-6.4-6.4
		C1061.4,77.3,1064.3,74.5,1067.8,74.5L1067.8,74.5z"/>
	<path class="st3" d="M1067.8,74.1c1.9,0,3.6,0.8,4.8,2l0,0l0,0c1.2,1.2,2,2.9,2,4.8c0,1.9-0.8,3.6-2,4.8l0,0c-1.2,1.2-2.9,2-4.8,2
		c-1.9,0-3.6-0.8-4.8-2c-1.2-1.2-2-2.9-2-4.8c0-1.9,0.8-3.6,2-4.8l0,0C1064.2,74.8,1065.9,74.1,1067.8,74.1L1067.8,74.1z M1072,76.7
		c-1.1-1.1-2.6-1.7-4.2-1.7s-3.1,0.7-4.2,1.7v0c-1.1,1.1-1.7,2.6-1.7,4.2s0.7,3.1,1.7,4.2c1.1,1.1,2.6,1.7,4.2,1.7
		c1.6,0,3.1-0.7,4.2-1.7h0c1.1-1.1,1.7-2.6,1.7-4.2C1073.7,79.2,1073.1,77.7,1072,76.7L1072,76.7L1072,76.7z"/>
	<path class="st2" d="M1156.2,44.8c3.5,0,6.4,2.9,6.4,6.4c0,3.5-2.9,6.4-6.4,6.4c-3.5,0-6.4-2.9-6.4-6.4
		C1149.8,47.7,1152.7,44.8,1156.2,44.8L1156.2,44.8z"/>
	<path class="st3" d="M1156.2,44.4c1.9,0,3.6,0.8,4.8,2l0,0l0,0c1.2,1.2,2,2.9,2,4.8c0,1.9-0.8,3.6-2,4.8l0,0c-1.2,1.2-2.9,2-4.8,2
		c-1.9,0-3.6-0.8-4.8-2c-1.2-1.2-2-2.9-2-4.8c0-1.9,0.8-3.6,2-4.8l0,0C1152.6,45.1,1154.3,44.4,1156.2,44.4L1156.2,44.4z M1160.4,47
		c-1.1-1.1-2.6-1.7-4.2-1.7c-1.6,0-3.1,0.7-4.2,1.7v0c-1.1,1.1-1.7,2.6-1.7,4.2c0,1.6,0.7,3.1,1.7,4.2c1.1,1.1,2.6,1.7,4.2,1.7
		c1.6,0,3.1-0.7,4.2-1.7h0c1.1-1.1,1.7-2.6,1.7-4.2C1162.1,49.5,1161.5,48,1160.4,47L1160.4,47L1160.4,47z"/>
</g>
</svg>
